{
    "results": [
        {
            "popularity": 93.058,
            "vote_count": 176,
            "video": false,
            "poster_path": "/p7RjlzDLV4KksrWtyve1Rg40nLv.jpg",
            "id": 385103,
            "adult": false,
            "backdrop_path": "/fKtYXUhX5fxMxzQfyUcQW9Shik6.jpg",
            "original_language": "en",
            "original_title": "Scoob!",
            "genre_ids": [
                12,
                16,
                35,
                9648,
                10751
            ],
            "title": "SCOOBY! O Filme",
            "vote_average": 7.9,
            "overview": "Scooby e a gangue enfrentam seu mistério mais desafiador de todos os tempos: um plano para libertar o cão fantasma Cerberus no mundo. Enquanto eles correm para parar esse caopocalypse, a gangue descobre que Scooby tem um destino épico maior do que se imaginava.",
            "release_date": "2020-07-08"
        },
        {
            "popularity": 78.552,
            "vote_count": 8,
            "video": false,
            "poster_path": "/dGVUiqnahQ4ZZRchGRpO2SyhtQY.jpg",
            "id": 581392,
            "adult": false,
            "backdrop_path": "/oamFZb8Gj5NJ24OLDd07wyNVX4N.jpg",
            "original_language": "ko",
            "original_title": "반도",
            "genre_ids": [
                28,
                27,
                53
            ],
            "title": "Invasão Zumbi 2: Península",
            "vote_average": 5.4,
            "overview": "A península coreana ficou devastada após o surto de zumbis que atingiu os passageiros de um trem-bala com destino a Buscan há quatro anos. Com isso, um ex-soldado que conseguiu fugir do país, Jung-seok, tem a missão de retornar e acaba encontrando alguns sobreviventes.",
            "release_date": "2020-07-15"
        },
        {
            "popularity": 77.328,
            "vote_count": 183,
            "video": false,
            "poster_path": "/hPkqY2EMqWUnFEoedukilIUieVG.jpg",
            "id": 531876,
            "adult": false,
            "backdrop_path": "/n1RohH2VoK1CdVI2fXvcP19dSlm.jpg",
            "original_language": "en",
            "original_title": "The Outpost",
            "genre_ids": [
                28,
                18,
                36,
                10752
            ],
            "title": "The Outpost",
            "vote_average": 6.9,
            "overview": "Uma pequena equipe de soldados dos EUA batalham contra centenas de combatentes do Talibã no Afeganistão.",
            "release_date": "2020-06-24"
        },
        {
            "popularity": 73.2,
            "vote_count": 4,
            "video": false,
            "poster_path": "/27eA9xGba61LtKr7gJRnhtDDgEP.jpg",
            "id": 651586,
            "adult": false,
            "backdrop_path": "/1iEDKZHREDetZcOoqioZewcHOw9.jpg",
            "original_language": "es",
            "original_title": "Superagente Makey",
            "genre_ids": [
                28,
                35
            ],
            "title": "Superagente Makey",
            "vote_average": 5,
            "overview": "",
            "release_date": "2020-07-17"
        },
        {
            "popularity": 69.777,
            "vote_count": 13,
            "video": false,
            "poster_path": "/jBeL6pPUPo0wnyTmiuxPegcibPf.jpg",
            "id": 608195,
            "adult": false,
            "backdrop_path": "/8LI4OEQGY2DIBTQQeRjYVKfL9Dl.jpg",
            "original_language": "en",
            "original_title": "Ghosts of War",
            "genre_ids": [
                14,
                27,
                53,
                10752
            ],
            "title": "Ghosts of War",
            "vote_average": 4.5,
            "overview": "No fim da Segunda Guerra Mundial, cinco soldados americanos são ordenados a proteger um castelo na França. Anteriormente ocupado pelo alto comando nazista, o local parece seguro, até o grupo se encontrar com uma ameaça sobrenatural muito mais aterrorizante do que qualquer coisa vista no campo de batalha.",
            "release_date": "2020-07-03"
        },
        {
            "popularity": 62.429,
            "vote_count": 669,
            "video": false,
            "poster_path": "/avb3THg1FTxBc79h2QECsuwjujY.jpg",
            "id": 475430,
            "adult": false,
            "backdrop_path": "/o0F8xAt8YuEm5mEZviX5pEFC12y.jpg",
            "original_language": "en",
            "original_title": "Artemis Fowl",
            "genre_ids": [
                12,
                14,
                878,
                10751
            ],
            "title": "Artemis Fowl - O Mundo Secreto",
            "vote_average": 5.9,
            "overview": "Artemis Fowl é um garoto de 12 anos extremamente inteligente que usa sua capacidade para roubar. Um dia, ele descobre um local mágico chamado mundo das fadas. Decidido a roubar a fortuna local, ele sequestra um elfo e cobra um resgate para libertá-lo. Só que logo a Liga de Elite da Polícia parte em seu encalço.",
            "release_date": "2020-06-12"
        },
        {
            "popularity": 62.192,
            "vote_count": 2625,
            "video": false,
            "poster_path": "/jsi2UM64Mhr6NmY1LKeeCuZOaCo.jpg",
            "id": 508439,
            "adult": false,
            "backdrop_path": "/xFxk4vnirOtUxpOEWgA1MCRfy6J.jpg",
            "original_language": "en",
            "original_title": "Onward",
            "genre_ids": [
                12,
                16,
                35,
                14,
                10751
            ],
            "title": "Dois Irmãos: Uma Jornada Fantástica",
            "vote_average": 7.9,
            "overview": "Em um mundo transformado, no qual as criaturas não dependiam mais da magia para viver, dois irmãos elfos recebem um cajado de bruxo de seu falecido pai, capaz de trazê-lo de volta à vida. Inexperientes com qualquer tipo de magia, Ian e Barley não conseguem executar o feitiço e acabam gerando uma criatura sem cabeça. Para passar mais um dia com seu pai, eles embarcam em uma jornada fantástica. Ao perceber a ausência dos filhos, sua mãe se une à uma lendária manticora para encontrá-los.",
            "release_date": "2020-02-29"
        },
        {
            "popularity": 57.245,
            "vote_count": 62,
            "video": false,
            "poster_path": "/3wZ0gxLqsPleneFSTZILmM3BE8Q.jpg",
            "id": 539181,
            "adult": false,
            "backdrop_path": "/vpUUznNzW85xo02H16RaSxRNS1.jpg",
            "original_language": "en",
            "original_title": "Relic",
            "genre_ids": [
                18,
                27
            ],
            "title": "Relíquia",
            "vote_average": 6.3,
            "overview": "Quando a velha mãe Edna inexplicavelmente some, cabe à filha Kay e à neta Sam viajar para a decrépita casa de campo da família para encontrar pistas de sua demência espalhadas pela casa.",
            "release_date": "2020-07-03"
        },
        {
            "popularity": 46.434,
            "id": 603,
            "video": false,
            "vote_count": 17425,
            "vote_average": 8.1,
            "title": "Matrix",
            "release_date": "1999-03-30",
            "original_language": "en",
            "original_title": "The Matrix",
            "genre_ids": [
                28,
                878
            ],
            "backdrop_path": "/ByDf0zjLSumz1MP1cDEo2JWVtU.jpg",
            "adult": false,
            "overview": "Um jovem programador é atormentado por estranhos pesadelos nos quais sempre está conectado por cabos a um imenso sistema de computadores do futuro. À medida que o sonho se repete, ele começa a levantar dúvidas sobre a realidade. E quando encontra os misteriosos Morpheus e Trinity, ele descobre que é vítima do Matrix, um sistema inteligente e artificial que manipula a mente das pessoas e cria a ilusão de um mundo real enquanto usa os cérebros e corpos dos indivíduos para produzir energia.",
            "poster_path": "/etJHvVsM9aefWWrW23r5BXgVK1F.jpg"
        },
        {
            "popularity": 44.572,
            "vote_count": 75,
            "video": false,
            "poster_path": "/fN3J7yMRKzMxSBgVhS6AIgBF9ji.jpg",
            "id": 619592,
            "adult": false,
            "backdrop_path": "/eIqyISB5j99OSRZUuvdN9g2bBsS.jpg",
            "original_language": "en",
            "original_title": "Force of Nature",
            "genre_ids": [
                28,
                18
            ],
            "title": "Força da Natureza",
            "vote_average": 5.4,
            "overview": "Um policial deve proteger os moradores remanescentes de um prédio no meio de uma evacuação de furacão, enquanto criminosos violentos tentam realizar um misterioso assalto dentro do prédio.",
            "release_date": "2020-07-02"
        },
        {
            "popularity": 42.816,
            "id": 514847,
            "video": false,
            "vote_count": 1105,
            "vote_average": 6.7,
            "title": "A Caçada",
            "release_date": "2020-03-11",
            "original_language": "en",
            "original_title": "The Hunt",
            "genre_ids": [
                28,
                53,
                27
            ],
            "backdrop_path": "/naXUDz0VGK7aaPlEpsuYW8kNVsr.jpg",
            "adult": false,
            "overview": "Doze estranhos acordam em uma clareira. Eles não sabem onde estão ou como chegaram lá. Eles não sabem que foram escolhidos para um propósito muito específico, A Caçada.",
            "poster_path": "/mDt3GkephI5yrRsEgLfdo3MYxyj.jpg"
        },
        {
            "popularity": 38.717,
            "vote_count": 281,
            "video": false,
            "poster_path": "/eqrSjDbIN4beOs7BwpZJNM3OpBr.jpg",
            "id": 486589,
            "adult": false,
            "backdrop_path": "/bga3i5jcejBekr2FCGJga1fYCh.jpg",
            "original_language": "en",
            "original_title": "Red Shoes and the Seven Dwarfs",
            "genre_ids": [
                16,
                10749,
                10751
            ],
            "title": "Sapatinho Vermelho e os Sete Anões",
            "vote_average": 7.3,
            "overview": "Nesta releitura do famoso conto da Branca de Neve, o beijo da princesa de sapatos vermelhos (Chloe Grace Moretz) é a única cura para os sete anões que, na verdade, são sete príncipes arrogantes. A disputa pelo beijo da princesa fará com que eles mudem suas visões de mundo e entendam o verdadeiro significado da beleza.",
            "release_date": "2019-07-25"
        },
        {
            "popularity": 37.942,
            "vote_count": 216,
            "video": false,
            "poster_path": "/hoUzSMxGu4Bm73EvH6B3iceFwW8.jpg",
            "id": 706510,
            "adult": false,
            "backdrop_path": "/k8H6Qp4uJ9WHArPQwDqCaW9g3Sj.jpg",
            "original_language": "en",
            "original_title": "Desperados",
            "genre_ids": [
                35,
                10749
            ],
            "title": "Desperados",
            "vote_average": 6.3,
            "overview": "Acompanhada pelos amigos, uma jovem apavorada parte para o México para tentar apagar um e-mail desaforado que enviou ao novo namorado.",
            "release_date": "2020-07-03"
        },
        {
            "popularity": 35.867,
            "vote_count": 1982,
            "video": false,
            "poster_path": "/vaoCd6iZ6xmBTvsiuWjcMWY6wdm.jpg",
            "id": 522938,
            "adult": false,
            "backdrop_path": "/3IHqwENGxOb36Jgeot4XHs3BTxz.jpg",
            "original_language": "en",
            "original_title": "Rambo: Last Blood",
            "genre_ids": [
                28,
                18,
                53
            ],
            "title": "Rambo: Até o Fim",
            "vote_average": 6.3,
            "overview": "O tempo passou para Rambo, agora ele vive recluso e trabalha em um rancho que fica na fronteira entre os Estados Unidos e o México. Sua vida antiga marcada por lutas violentas, mas quase sempre vitoriosas, ficou no passado. No entanto, quando a filha de um amigo é sequestrada, Rambo não consegue controlar seu ímpeto por justiça e resolve enfrentar um dos mais perigosos cartéis do México.",
            "release_date": "2019-09-19"
        },
        {
            "popularity": 33.935,
            "vote_count": 509,
            "video": false,
            "poster_path": "/9KgPkiGDPo4AutgAypNaQE17Bkt.jpg",
            "id": 458305,
            "adult": false,
            "backdrop_path": "/jZ4YdDCnfK4cO13do9J4JaT8d2O.jpg",
            "original_language": "en",
            "original_title": "Vivarium",
            "genre_ids": [
                27,
                878,
                53
            ],
            "title": "Viveiro",
            "vote_average": 5.9,
            "overview": "Quando o casal de noivos Tom (Jesse Eisenberg) e Gemma (Imogen Poots), à procura da casa perfeita para começar a vida juntos, conhecem um estranho corretor imobiliário, eles não pensam duas vezes quando são apresentados à Yonder, uma misteriosa vizinhança suburbana de casas idênticas. No entanto, logo eles vão perceber que estão presos em um pesadelo, tendo que criar uma criança de outro mundo.",
            "release_date": "2019-07-12"
        },
        {
            "popularity": 33.222,
            "vote_count": 29,
            "video": false,
            "poster_path": "/xCDFEzX1omKlXp7jTqJmLoxJTr9.jpg",
            "id": 686245,
            "adult": false,
            "backdrop_path": "/cVnCwyaKP7exbgaCMR9DJS4xleZ.jpg",
            "original_language": "en",
            "original_title": "Survive the Night",
            "genre_ids": [
                28,
                53
            ],
            "title": "Sobreviver à Noite",
            "vote_average": 6.3,
            "overview": "Dois criminosos implacáveis ​​entram na casa de um médico em decadência, para receber atendimento médico depois que um deles é baleado durante um assalto que deu errado. Sabendo que ele não tem o conhecimento necessário para consertar o invasor ferido, o médico deve proteger sua família a todo custo.",
            "release_date": "2020-07-09"
        },
        {
            "popularity": 32.553,
            "id": 525661,
            "video": false,
            "vote_count": 1270,
            "vote_average": 6.8,
            "title": "O Escândalo",
            "release_date": "2019-12-13",
            "original_language": "en",
            "original_title": "Bombshell",
            "genre_ids": [
                18
            ],
            "backdrop_path": "/nj84vpuUWdbmYktBzjiWn5Ny1ZF.jpg",
            "adult": false,
            "overview": "Um gigante do telejornalismo e antigo CEO da Fox News, Roger Ailes (John Lithgow) tem seu poder questionado e sua carreira derrubada quando um grupo de mulheres o acusam de assédio sexual no ambiente de trabalho.",
            "poster_path": "/s7DTu2TAOzIcunFtFyqzyYoICiy.jpg"
        },
        {
            "popularity": 31.773,
            "vote_count": 1216,
            "video": false,
            "poster_path": "/itUXQRTYJYDM5vwJFDWKb0uxqoC.jpg",
            "id": 484641,
            "adult": false,
            "backdrop_path": "/oHDnvxSDOTsaYZSUibJjrEMWMLL.jpg",
            "original_language": "fr",
            "original_title": "Anna",
            "genre_ids": [
                28,
                53
            ],
            "title": "Anna - O Perigo Tem Nome",
            "vote_average": 6.7,
            "overview": "Por trás da beleza marcante de Anna Poliatova há um segredo que irá expor sua indestrutível força e habilidade para se tornar uma das assassinas mais temidas do mundo. Uma eletrizante e emocionante viagem repleta de energia, reviravoltas surpreendentes e ação de tirar o fôlego. ANNA apresenta Sasha Luss na personagem que dá nome ao filme e traz um elenco com várias estrelas, incluindo a vencedora do Oscar Helen Mirren, Cillian Murphy e Luke Evans.",
            "release_date": "2019-06-19"
        },
        {
            "popularity": 31.689,
            "id": 531454,
            "video": false,
            "vote_count": 428,
            "vote_average": 6.6,
            "title": "Festival Eurovision da Canção: A Saga de Sigrit e Lars",
            "release_date": "2020-06-26",
            "original_language": "en",
            "original_title": "Eurovision Song Contest: The Story of Fire Saga",
            "genre_ids": [
                35,
                10402
            ],
            "backdrop_path": "/jMO1icztaUUEUApdAQx0cZOt7b8.jpg",
            "adult": false,
            "overview": "O sonho deles é participar da maior competição de música do mundo. Mas intrigas de rivais e acidentes no palco vão testar a relação entre esses dois.",
            "poster_path": "/7fMJ8ktszaWOyRs5sWntcpssFG.jpg"
        },
        {
            "popularity": 29.919,
            "id": 620,
            "video": false,
            "vote_count": 5720,
            "vote_average": 7.4,
            "title": "Os Caça-Fantasmas",
            "release_date": "1984-06-08",
            "original_language": "en",
            "original_title": "Ghostbusters",
            "genre_ids": [
                35,
                14
            ],
            "backdrop_path": "/c6yfABGVKuB5cjoOwdX4AJMlzUz.jpg",
            "adult": false,
            "overview": "Em Nova York Peter Venkman (Bill Murray), Ray Stantz (Dan Aykroyd) e Egon Spengler (Harold Ramis) são três cientistas do departamento de psicologia da Columbia University, que se dedicam ao estudo de casos paranormais. Quando a subvenção termina eles são despedidos e Venkman sugere que abram um negócio próprio, a exterminadora de fantasmas \"Ghostbusters\". Inicialmente eles só têm despesas e nenhum cliente, mas eis que surge Dana Barrett (Sigourney Weaver), uma violoncelista que teve uma experiência assustadora em seu apartamento.",
            "poster_path": "/7ESJStBUQf4ogoRGoa1aqyf6qXq.jpg"
        }
    ],
    "page": 1,
    "total_results": 596,
    "dates": {
        "maximum": "2020-07-20",
        "minimum": "2020-06-02"
    },
    "total_pages": 30
}
